{
    "v": "1.1.1",
    "mappingEnabled": true,
    "softLaunchEnabled": true,
    "s": "https://ari-1-deploy.socialcyber.io/",
    "wlist": [
        "www.bankhapoalim.co.il",
        "login.bankhapoalim.co.il",
        "www.bitpay.co.il",
        "www.bcodes.co.il",
        "94.245.109.222",
        "static2.bankhapoalim.co.il",
        "jsaccess.poalim-site.co.il",
        "sdc.bankhapoalim.co.il",
        "online.citi.com",
        "steps.citi.com",
        "metrics1.citi.com",
        "prod.report.nacustomerexperience.citi.com",
        "prod.report.nacustomerexperience.citi.com"
    ],
    "d": {
        "1384164089": {
            "1870198467": {
                "x": [
                    3,
                    4
                ],
                "p": {
                    "device_id": 1,
                    "extinfo": 1,
                    "extinfo[0]": 1,
                    "extinfo[1]": 1,
                    "extinfo[2]": 1,
                    "extinfo[3]": 1,
                    "extinfo[4]": 1,
                    "format": 1,
                    "include_headers": 1,
                    "sdk": 1
                },
                "bl": false
            },
            "655015478": {
                "x": [
                    3,
                    4
                ],
                "p": {
                    "advertiser_id": 1,
                    "advertiser_tracking_enabled": 0,
                    "anon_id": 1,
                    "application_tracking_enabled": 0,
                    "custom_events.[0]._eventName": 1,
                    "custom_events.[0]._logTime": 1,
                    "custom_events.[0]._session_id": 1,
                    "custom_events.[0]._ui": 1,
                    "custom_events.[0]._valueToSum": 1,
                    "custom_events.[0].core_lib_included": 1,
                    "custom_events.[0].fb_mobile_app_interruptions": 1,
                    "custom_events.[0].fb_mobile_launch_source": 1,
                    "custom_events.[0].fb_mobile_time_between_sessions": 1,
                    "custom_events.[0].marketing_lib_included": 1,
                    "custom_events.[0].Param1": 1,
                    "custom_events.[0].Param2": 0,
                    "custom_events.[0].Param3": 1,
                    "custom_events.[0].Param4": 0,
                    "custom_events.[0].Param5": 1,
                    "custom_events.[0].Param6": 1,
                    "custom_events.[1]._eventName": 1,
                    "custom_events.[1]._logTime": 1,
                    "custom_events.[1]._session_id": 1,
                    "custom_events.[1]._ui": 1,
                    "custom_events.[1]._valueToSum": 1,
                    "custom_events.[1].core_lib_included": 1,
                    "custom_events.[1].fb_mobile_app_interruptions": 1,
                    "custom_events.[1].fb_mobile_launch_source": 1,
                    "custom_events.[1].fb_mobile_time_between_sessions": 1,
                    "custom_events.[1].marketing_lib_included": 1,
                    "custom_events.[1].Param1": 1,
                    "custom_events.[1].Param2": 0,
                    "custom_events.[1].Param3": 1,
                    "custom_events.[1].Param4": 0,
                    "custom_events.[1].Param5": 1,
                    "custom_events.[1].Param6": 1,
                    "custom_events.[2]._eventName": 1,
                    "custom_events.[2]._logTime": 1,
                    "custom_events.[2]._session_id": 1,
                    "custom_events.[2]._ui": 1,
                    "custom_events.[2]._valueToSum": 1,
                    "custom_events.[2].core_lib_included": 1,
                    "custom_events.[2].fb_mobile_app_interruptions": 1,
                    "custom_events.[2].fb_mobile_launch_source": 1,
                    "custom_events.[2].fb_mobile_time_between_sessions": 1,
                    "custom_events.[2].marketing_lib_included": 1,
                    "event": 1,
                    "extinfo.[0]": 1,
                    "extinfo.[1]": 1,
                    "extinfo.[10]": 1,
                    "extinfo.[11]": 1,
                    "extinfo.[12]": 1,
                    "extinfo.[13]": 1,
                    "extinfo.[14]": 1,
                    "extinfo.[15]": 0,
                    "extinfo.[2]": 1,
                    "extinfo.[3]": 1,
                    "extinfo.[4]": 1,
                    "extinfo.[5]": 1,
                    "extinfo.[6]": 1,
                    "extinfo.[7]": 1,
                    "extinfo.[8]": 1,
                    "extinfo.[9]": 1,
                    "format": 1,
                    "include_headers": 1,
                    "sdk": 1,
                    "url_schemes.[0]": 1
                },
                "bl": false
            },
            "46971312": {
                "x": 1,
                "p": {
                    
                },
                "bl": false
            },
            "f": [
                
            ],
            "bl": false
        },
        "1920462113": {
            "1507509": {
                "x": [
                    3,
                    4
                ],
                "p": {
                    
                },
                "bl": false
            },
            "f": [
                
            ],
            "bl": false
        },
        "1104421027": {
            "1554": {
                "x": 1,
                "p": {
                    "4_NUM": 1,
                    "5_NUM": 1,
                    "6_NUM": 1,
                    "7_NUM": 1,
                    "8_STR": 1,
                    "9_STR": 1,
                    "10_STR": 1,
                    "11_STR": 1,
                    "12_NUM": 1,
                    "13_STR": 1,
                    "14_STR": 1,
                    "16_STR": 1,
                    "17_NUM": 1,
                    "18_NUM": 1,
                    "19_STR": 1,
                    "20_NUM": 1,
                    "21_STR": 1,
                    "23_NUM": 1,
                    "25_STR": 1,
                    "26_NUM": 1,
                    "30_STR": 1,
                    "31_NUM": 1,
                    "32_NUM": 1
                },
                "bl": false
            },
            "f": [
                
            ],
            "bl": false
        },
        "1659320991": {
            "593045457": {
                "x": [
                    3,
                    4
                ],
                "p": {
                    "build_version": 1,
                    "display_version": 1,
                    "instance": 1,
                    "source": 1
                },
                "bl": false
            },
            "f": [
                
            ],
            "bl": false
        },
        "2055489337": {
            "581079633": {
                "x": [
                    3,
                    4
                ],
                "p": {
                    "advertiserId": 0,
                    "advertiserId_2": 1,
                    "advertiserIdEnabled": 0,
                    "advertiserIdEnabled_2": 1,
                    "af_events_api": 1,
                    "af_timestamp": 1,
                    "app_id": 1,
                    "buildnumber": 1,
                    "bundleIdentifier": 1,
                    "bundlename": 1,
                    "bundleversion": 1,
                    "cell.mcc": 1,
                    "cell.mnc": 1,
                    "cell.ra": 1,
                    "cksm_v1": 1,
                    "counter": 1,
                    "currentCountrycode": 1,
                    "currentLanguage": 1,
                    "date1": 0,
                    "date2": 1,
                    "date3": 1,
                    "dev_key": 1,
                    "device_id": 1,
                    "deviceData.cpu_64bits": 1,
                    "deviceData.cpu_count": 1,
                    "deviceData.cpu_speed": 1,
                    "deviceData.cpu_type": 1,
                    "deviceData.device_model": 1,
                    "deviceData.osVersion": 1,
                    "deviceData.ram_size": 1,
                    "devkey": 1,
                    "event": 1,
                    "eventvalue": 1,
                    "firstLaunchDate": 1,
                    "iaecounter": 1,
                    "ivc": 1,
                    "JBDevice": 1,
                    "lang_code": 1,
                    "localizedmodel": 1,
                    "model": 1,
                    "open_referrer": 1,
                    "originalAppsflyerId": 1,
                    "platform": 1,
                    "platformextension": 1,
                    "reinstallCounter": 1,
                    "serverApiVersion": 1,
                    "sessioncounter": 1,
                    "shortbundleversion": 1,
                    "systemname": 1,
                    "systemversion": 1,
                    "timepassedsincelastlaunch": 1,
                    "timestamp": 1,
                    "uid": 1,
                    "vendorId": 1,
                    "Version3.1.iad-adgroup-id": 1,
                    "Version3.1.iad-adgroup-name": 1,
                    "Version3.1.iad-attribution": 1,
                    "Version3.1.iad-campaign-id": 1,
                    "Version3.1.iad-campaign-name": 1,
                    "Version3.1.iad-click-date": 1,
                    "Version3.1.iad-conversion-date": 1,
                    "Version3.1.iad-conversion-type": 1,
                    "Version3.1.iad-creativeset-id": 1,
                    "Version3.1.iad-creativeset-name": 1,
                    "Version3.1.iad-keyword": 1,
                    "Version3.1.iad-keyword-matchtype": 1,
                    "Version3.1.iad-lineitem-id": 1,
                    "Version3.1.iad-lineitem-name": 1,
                    "Version3.1.iad-org-name": 1,
                    "Version3.1.iad-purchase-date": 1,
                    "wifi": 1
                },
                "bl": false
            },
            "f": [
                
            ],
            "bl": false
        },
        "945351508": {
            "581079633": {
                "x": [
                    3,
                    4
                ],
                "p": {
                    "advertiserId": 1,
                    "advertiserId_2": 0,
                    "advertiserIdEnabled": 1,
                    "advertiserIdEnabled_2": 0,
                    "af_events_api": 1,
                    "af_timestamp": 1,
                    "app_id": 1,
                    "buildnumber": 1,
                    "bundleIdentifier": 1,
                    "bundlename": 1,
                    "bundleversion": 1,
                    "cell.mcc": 1,
                    "cell.mnc": 1,
                    "cell.ra": 1,
                    "cksm_v1": 1,
                    "counter": 1,
                    "currentCountrycode": 1,
                    "currentLanguage": 1,
                    "date1": 1,
                    "date2": 0,
                    "date3": 1,
                    "dev_key": 1,
                    "deviceData.cpu_64bits": 1,
                    "deviceData.cpu_count": 1,
                    "deviceData.cpu_speed": 1,
                    "deviceData.cpu_type": 1,
                    "deviceData.device_model": 1,
                    "deviceData.osVersion": 1,
                    "deviceData.ram_size": 1,
                    "event": 1,
                    "eventvalue.Param1": 1,
                    "eventvalue.Param2": 0,
                    "eventvalue.Param3": 1,
                    "eventvalue.Param4": 0,
                    "eventvalue.Param5": 1,
                    "eventvalue.Param6": 1,
                    "firstLaunchDate": 1,
                    "iaecounter": 1,
                    "ivc": 1,
                    "JBDevice": 1,
                    "lang_code": 1,
                    "localizedmodel": 1,
                    "model": 1,
                    "originalAppsflyerId": 1,
                    "platform": 1,
                    "platformextension": 1,
                    "reinstallCounter": 1,
                    "serverApiVersion": 1,
                    "sessioncounter": 1,
                    "shortbundleversion": 1,
                    "systemname": 1,
                    "systemversion": 1,
                    "timestamp": 1,
                    "uid": 1,
                    "vendorId": 1,
                    "Version3.1.iad-adgroup-id": 1,
                    "Version3.1.iad-adgroup-name": 1,
                    "Version3.1.iad-attribution": 1,
                    "Version3.1.iad-campaign-id": 1,
                    "Version3.1.iad-campaign-name": 1,
                    "Version3.1.iad-click-date": 1,
                    "Version3.1.iad-conversion-date": 1,
                    "Version3.1.iad-conversion-type": 1,
                    "Version3.1.iad-creativeset-id": 1,
                    "Version3.1.iad-creativeset-name": 1,
                    "Version3.1.iad-keyword": 1,
                    "Version3.1.iad-keyword-matchtype": 1,
                    "Version3.1.iad-lineitem-id": 1,
                    "Version3.1.iad-lineitem-name": 1,
                    "Version3.1.iad-org-name": 1,
                    "Version3.1.iad-purchase-date": 1,
                    "wifi": 1
                },
                "bl": false
            },
            "f": [
                
            ],
            "bl": false
        },
        "542491509": {
            "648279653": {
                "x": [
                    3,
                    4
                ],
                "p": {
                    "cc": [
                        3
                    ],
                    "Num": [
                        1
                    ],
                    "p": 0,
                    "Text": [
                        2
                    ]
                },
                "bl": false
            },
            "f": [
                
            ],
            "bl": false
        },
        "2069786383": {
            "1050021150": {
                "bl": true
            },
            "f": [
                
            ],
            "bl": false
        },
        "1240571379": {
            "35190359": {
                "x": [
                    3,
                    4
                ],
                "p": {
                    
                },
                "bl": false
            },
            "f": [
                
            ],
            "bl": false
        },
        "1235182799": {
            "2144671421": {
                "x": [
                    3,
                    4
                ],
                "p": {
                    
                },
                "bl": false
            },
            "f": [
                
            ],
            "bl": false
        },
        "1514373710": {
            "1049357588": {
                "x": 1,
                "p": {
                    
                },
                "bl": false
            },
            "f": [
                
            ],
            "bl": false
        }
    },
    "f": [
        
    ]
}
