{
    "1_OBJ": {
        "2_OBJ": [
            {
                "1_OBJ": [
                    {
                        "1_STR": "_si",
                        "3_NUM": 14024953403956776075
                    }
                ],
            }
        ],
    }
}
